# Object Export From Tinkercad Server 2015

mtllib obj.mtl

o obj_0
v 37 		20 		0
v 37 		20 		10
v 51.44 		2.38 		10
v 51.44 		2.38 		0
v 42.52 		2.38 		0
v 42.52 		2.38 		10
v 51.44 		-2.84 		10
v 51.44 		-2.84 		0
v 37 		-2.84 		0
v 37 		-2.84 		10
v 51.44 		20 		0
v 51.44 		20 		10
v 51.44 		14.76 		10
v 51.44 		14.76 		0
v 50.92 		11.64 		0
v 50.92 		11.64 		10
v 50.92 		6.4 		10
v 50.92 		6.4 		0
v 42.52 		14.76 		10
v 42.52 		14.76 		0
v 42.52 		11.64 		0
v 42.52 		6.4 		0
v 42.52 		6.4 		10
v 42.52 		11.64 		10
# 24 vertices

g group_0_2829873

usemtl color_2829873
s 0

f 3 	4 	5
f 3 	5 	6
f 7 	8 	4
f 7 	4 	3
f 9 	10 	1
f 2 	1 	10
f 8 	7 	10
f 8 	10 	9
f 11 	12 	13
f 11 	13 	14
f 15 	16 	17
f 15 	17 	18
f 11 	14 	20
f 1 	11 	20
f 21 	15 	18
f 21 	18 	22
f 1 	20 	21
f 1 	21 	22
f 5 	9 	22
f 1 	22 	9
f 10 	23 	2
f 6 	23 	10
f 2 	23 	24
f 2 	24 	19
f 7 	3 	6
f 7 	6 	10
f 18 	17 	23
f 18 	23 	22
f 19 	20 	13
f 14 	13 	20
f 11 	1 	2
f 11 	2 	12
f 15 	21 	24
f 15 	24 	16
f 22 	23 	6
f 22 	6 	5
f 20 	19 	24
f 20 	24 	21
f 9 	5 	8
f 4 	8 	5
f 12 	19 	13
f 12 	2 	19
f 16 	24 	23
f 16 	23 	17
# 44 faces

 #end of obj_0

